%YAML 1.1
%TAG !u! tag:unity3d.com,2011:
--- !u!1001 &8906464174205786074
PrefabInstance:
  m_ObjectHideFlags: 0
  serializedVersion: 2
  m_Modification:
    serializedVersion: 3
    m_TransformParent: {fileID: 0}
    m_Modifications:
    - target: {fileID: -8679921383154817045, guid: 1fbe099b8178d634a8dbfbb8e2bd5182, type: 3}
      propertyPath: m_LocalScale.x
      value: 0.7
      objectReference: {fileID: 0}
    - target: {fileID: -8679921383154817045, guid: 1fbe099b8178d634a8dbfbb8e2bd5182, type: 3}
      propertyPath: m_LocalScale.y
      value: 0.7
      objectReference: {fileID: 0}
    - target: {fileID: -8679921383154817045, guid: 1fbe099b8178d634a8dbfbb8e2bd5182, type: 3}
      propertyPath: m_LocalScale.z
      value: 0.7
      objectReference: {fileID: 0}
    - target: {fileID: -8679921383154817045, guid: 1fbe099b8178d634a8dbfbb8e2bd5182, type: 3}
      propertyPath: m_LocalPosition.x
      value: 0.7617465
      objectReference: {fileID: 0}
    - target: {fileID: -8679921383154817045, guid: 1fbe099b8178d634a8dbfbb8e2bd5182, type: 3}
      propertyPath: m_LocalPosition.y
      value: 0.5183509
      objectReference: {fileID: 0}
    - target: {fileID: -8679921383154817045, guid: 1fbe099b8178d634a8dbfbb8e2bd5182, type: 3}
      propertyPath: m_LocalPosition.z
      value: -18.527597
      objectReference: {fileID: 0}
    - target: {fileID: -8679921383154817045, guid: 1fbe099b8178d634a8dbfbb8e2bd5182, type: 3}
      propertyPath: m_LocalRotation.w
      value: 1
      objectReference: {fileID: 0}
    - target: {fileID: -8679921383154817045, guid: 1fbe099b8178d634a8dbfbb8e2bd5182, type: 3}
      propertyPath: m_LocalRotation.x
      value: 0
      objectReference: {fileID: 0}
    - target: {fileID: -8679921383154817045, guid: 1fbe099b8178d634a8dbfbb8e2bd5182, type: 3}
      propertyPath: m_LocalRotation.y
      value: 0
      objectReference: {fileID: 0}
    - target: {fileID: -8679921383154817045, guid: 1fbe099b8178d634a8dbfbb8e2bd5182, type: 3}
      propertyPath: m_LocalRotation.z
      value: 0
      objectReference: {fileID: 0}
    - target: {fileID: -8679921383154817045, guid: 1fbe099b8178d634a8dbfbb8e2bd5182, type: 3}
      propertyPath: m_LocalEulerAnglesHint.x
      value: 0
      objectReference: {fileID: 0}
    - target: {fileID: -8679921383154817045, guid: 1fbe099b8178d634a8dbfbb8e2bd5182, type: 3}
      propertyPath: m_LocalEulerAnglesHint.y
      value: 0
      objectReference: {fileID: 0}
    - target: {fileID: -8679921383154817045, guid: 1fbe099b8178d634a8dbfbb8e2bd5182, type: 3}
      propertyPath: m_LocalEulerAnglesHint.z
      value: 0
      objectReference: {fileID: 0}
    - target: {fileID: -8679921383154817045, guid: 1fbe099b8178d634a8dbfbb8e2bd5182, type: 3}
      propertyPath: m_ConstrainProportionsScale
      value: 1
      objectReference: {fileID: 0}
    - target: {fileID: 919132149155446097, guid: 1fbe099b8178d634a8dbfbb8e2bd5182, type: 3}
      propertyPath: m_Name
      value: Tree
      objectReference: {fileID: 0}
    - target: {fileID: 7113232789235503381, guid: 1fbe099b8178d634a8dbfbb8e2bd5182, type: 3}
      propertyPath: m_Materials.Array.data[0]
      value: 
      objectReference: {fileID: 2100000, guid: ab5a9d5771baf4241a12b98b91483064, type: 2}
    - target: {fileID: 7113232789235503381, guid: 1fbe099b8178d634a8dbfbb8e2bd5182, type: 3}
      propertyPath: m_Materials.Array.data[1]
      value: 
      objectReference: {fileID: 2100000, guid: 0e005c935a44b764f80b00b65eee4308, type: 2}
    m_RemovedComponents: []
    m_RemovedGameObjects:
    - {fileID: -4714817154256824709, guid: 1fbe099b8178d634a8dbfbb8e2bd5182, type: 3}
    m_AddedGameObjects: []
    m_AddedComponents:
    - targetCorrespondingSourceObject: {fileID: 919132149155446097, guid: 1fbe099b8178d634a8dbfbb8e2bd5182, type: 3}
      insertIndex: -1
      addedObject: {fileID: -5657384950496623886}
  m_SourcePrefab: {fileID: 100100000, guid: 1fbe099b8178d634a8dbfbb8e2bd5182, type: 3}
--- !u!1 &8600595644518394507 stripped
GameObject:
  m_CorrespondingSourceObject: {fileID: 919132149155446097, guid: 1fbe099b8178d634a8dbfbb8e2bd5182, type: 3}
  m_PrefabInstance: {fileID: 8906464174205786074}
  m_PrefabAsset: {fileID: 0}
--- !u!64 &-5657384950496623886
MeshCollider:
  m_ObjectHideFlags: 0
  m_CorrespondingSourceObject: {fileID: 0}
  m_PrefabInstance: {fileID: 0}
  m_PrefabAsset: {fileID: 0}
  m_GameObject: {fileID: 8600595644518394507}
  m_Material: {fileID: 0}
  m_IncludeLayers:
    serializedVersion: 2
    m_Bits: 0
  m_ExcludeLayers:
    serializedVersion: 2
    m_Bits: 0
  m_LayerOverridePriority: 0
  m_IsTrigger: 0
  m_ProvidesContacts: 0
  m_Enabled: 1
  serializedVersion: 5
  m_Convex: 1
  m_CookingOptions: 30
  m_Mesh: {fileID: 0}
