%YAML 1.1
%TAG !u! tag:unity3d.com,2011:
--- !u!1001 &6189335173936831841
PrefabInstance:
  m_ObjectHideFlags: 0
  serializedVersion: 2
  m_Modification:
    serializedVersion: 3
    m_TransformParent: {fileID: 0}
    m_Modifications:
    - target: {fileID: -8679921383154817045, guid: e8bbc3460728da34092373b19bad20c9, type: 3}
      propertyPath: m_LocalScale.x
      value: 0.9
      objectReference: {fileID: 0}
    - target: {fileID: -8679921383154817045, guid: e8bbc3460728da34092373b19bad20c9, type: 3}
      propertyPath: m_LocalScale.y
      value: 0.9
      objectReference: {fileID: 0}
    - target: {fileID: -8679921383154817045, guid: e8bbc3460728da34092373b19bad20c9, type: 3}
      propertyPath: m_LocalScale.z
      value: 0.9
      objectReference: {fileID: 0}
    - target: {fileID: -8679921383154817045, guid: e8bbc3460728da34092373b19bad20c9, type: 3}
      propertyPath: m_LocalPosition.x
      value: -11.95
      objectReference: {fileID: 0}
    - target: {fileID: -8679921383154817045, guid: e8bbc3460728da34092373b19bad20c9, type: 3}
      propertyPath: m_LocalPosition.y
      value: 0.50000095
      objectReference: {fileID: 0}
    - target: {fileID: -8679921383154817045, guid: e8bbc3460728da34092373b19bad20c9, type: 3}
      propertyPath: m_LocalPosition.z
      value: 21.33
      objectReference: {fileID: 0}
    - target: {fileID: -8679921383154817045, guid: e8bbc3460728da34092373b19bad20c9, type: 3}
      propertyPath: m_LocalRotation.w
      value: 0.7071067
      objectReference: {fileID: 0}
    - target: {fileID: -8679921383154817045, guid: e8bbc3460728da34092373b19bad20c9, type: 3}
      propertyPath: m_LocalRotation.x
      value: -0.7071068
      objectReference: {fileID: 0}
    - target: {fileID: -8679921383154817045, guid: e8bbc3460728da34092373b19bad20c9, type: 3}
      propertyPath: m_LocalRotation.y
      value: 0
      objectReference: {fileID: 0}
    - target: {fileID: -8679921383154817045, guid: e8bbc3460728da34092373b19bad20c9, type: 3}
      propertyPath: m_LocalRotation.z
      value: -0
      objectReference: {fileID: 0}
    - target: {fileID: -8679921383154817045, guid: e8bbc3460728da34092373b19bad20c9, type: 3}
      propertyPath: m_LocalEulerAnglesHint.x
      value: 0
      objectReference: {fileID: 0}
    - target: {fileID: -8679921383154817045, guid: e8bbc3460728da34092373b19bad20c9, type: 3}
      propertyPath: m_LocalEulerAnglesHint.y
      value: 0
      objectReference: {fileID: 0}
    - target: {fileID: -8679921383154817045, guid: e8bbc3460728da34092373b19bad20c9, type: 3}
      propertyPath: m_LocalEulerAnglesHint.z
      value: 0
      objectReference: {fileID: 0}
    - target: {fileID: -8679921383154817045, guid: e8bbc3460728da34092373b19bad20c9, type: 3}
      propertyPath: m_ConstrainProportionsScale
      value: 1
      objectReference: {fileID: 0}
    - target: {fileID: 919132149155446097, guid: e8bbc3460728da34092373b19bad20c9, type: 3}
      propertyPath: m_Name
      value: Tree
      objectReference: {fileID: 0}
    m_RemovedComponents: []
    m_RemovedGameObjects: []
    m_AddedGameObjects: []
    m_AddedComponents: []
  m_SourcePrefab: {fileID: 100100000, guid: e8bbc3460728da34092373b19bad20c9, type: 3}
